{
  "info" : {
    "version" : 1,
    "author" : "xcode"
  },
  "properties" : {
    "preserves-vector-representation" : true,
    "template-rendering-intent" : "original"
  },
  "images" : [
    {
      "idiom" : "universal",
      "scale" : "1x",
      "filename" : "path-747.pdf"
    },
    {
      "idiom" : "universal",
      "scale" : "2x"
    },
    {
      "idiom" : "universal",
      "scale" : "3x"
    }
  ]
}