{
  "images" : [
    {
      "scale" : "1x",
      "idiom" : "universal",
      "filename" : "group-245.pdf"
    },
    {
      "idiom" : "universal",
      "scale" : "2x"
    },
    {
      "idiom" : "universal",
      "scale" : "3x"
    }
  ],
  "info" : {
    "version" : 1,
    "author" : "xcode"
  },
  "properties" : {
    "template-rendering-intent" : "original",
    "preserves-vector-representation" : true
  }
}