{
  "info" : {
    "version" : 1,
    "author" : "xcode"
  },
  "properties" : {
    "template-rendering-intent" : "original",
    "preserves-vector-representation" : true
  },
  "images" : [
    {
      "filename" : "path-370.pdf",
      "scale" : "1x",
      "idiom" : "universal"
    },
    {
      "scale" : "2x",
      "idiom" : "universal"
    },
    {
      "scale" : "3x",
      "idiom" : "universal"
    }
  ]
}