{
  "info" : {
    "author" : "xcode",
    "version" : 1
  },
  "properties" : {
    "template-rendering-intent" : "original",
    "preserves-vector-representation" : true
  },
  "images" : [
    {
      "idiom" : "universal",
      "filename" : "group-2.pdf",
      "scale" : "1x"
    },
    {
      "idiom" : "universal",
      "scale" : "2x"
    },
    {
      "idiom" : "universal",
      "scale" : "3x"
    }
  ]
}