{
  "properties" : {
    "template-rendering-intent" : "original",
    "preserves-vector-representation" : true
  },
  "images" : [
    {
      "filename" : "group-181.pdf",
      "idiom" : "universal",
      "scale" : "1x"
    },
    {
      "scale" : "2x",
      "idiom" : "universal"
    },
    {
      "scale" : "3x",
      "idiom" : "universal"
    }
  ],
  "info" : {
    "version" : 1,
    "author" : "xcode"
  }
}